{
    "wallpaper": "/home/gautam/Downloads/waves.png",
    "alpha": "100",

    "special": {
        "background": "#0c0b12",
        "foreground": "#bdc5cf",
        "cursor": "#bdc5cf"
    },
    "colors": {
        "color0": "#0c0b12",
        "color1": "#464D60",
        "color2": "#45566B",
        "color3": "#4C6678",
        "color4": "#547389",
        "color5": "#67798E",
        "color6": "#708A9E",
        "color7": "#bdc5cf",
        "color8": "#848990",
        "color9": "#464D60",
        "color10": "#45566B",
        "color11": "#4C6678",
        "color12": "#547389",
        "color13": "#67798E",
        "color14": "#708A9E",
        "color15": "#bdc5cf"
    }
}
